<?xml version="1.0" encoding="UTF-8" standalone="no"?>
<svg
   xmlns:dc="http://purl.org/dc/elements/1.1/"
   xmlns:cc="http://creativecommons.org/ns#"
   xmlns:rdf="http://www.w3.org/1999/02/22-rdf-syntax-ns#"
   xmlns:svg="http://www.w3.org/2000/svg"
   xmlns="http://www.w3.org/2000/svg"
   xmlns:sodipodi="http://sodipodi.sourceforge.net/DTD/sodipodi-0.dtd"
   xmlns:inkscape="http://www.inkscape.org/namespaces/inkscape"
   width="103.18861mm"
   height="118.75838mm"
   viewBox="0 0 103.18861 118.75838"
   version="1.1"
   id="svg2652"
   inkscape:version="1.0 (4035a4fb49, 2020-05-01)"
   sodipodi:docname="open-cart.svg">
  <defs
     id="defs2646">
    <inkscape:path-effect
       message="Use fill-rule evenodd on &lt;b&gt;fill and stroke&lt;/b&gt; dialog if no flatten result after convert clip to paths."
       hide_clip="false"
       flatten="false"
       inverse="true"
       lpeversion="1"
       is_visible="true"
       id="path-effect970"
       effect="powerclip" />
    <inkscape:path-effect
       message="Use fill-rule evenodd on &lt;b&gt;fill and stroke&lt;/b&gt; dialog if no flatten result after convert clip to paths."
       hide_clip="false"
       flatten="false"
       inverse="true"
       lpeversion="1"
       is_visible="true"
       id="path-effect886"
       effect="powerclip" />
    <clipPath
       id="clipPath882"
       clipPathUnits="userSpaceOnUse">
      <path
         d="M 55.042517,89.546675 H 164.44786 V 198.95202 H 55.042517 Z m 68.191493,96.792255 v 34.59905 h 40.93579 v -34.59905 z"
         class="powerclip"
         style="fill:#ffffff;stroke:none;stroke-width:1.665;stroke-linecap:round;stroke-linejoin:round;stroke-miterlimit:4.2"
         id="lpe_path-effect886" />
    </clipPath>
    <clipPath
       id="clipPath966"
       clipPathUnits="userSpaceOnUse">
      <rect
         d="M 130.53233,180.79001 H 164.268 v 33.6023 h -33.73567 z"
         y="180.79001"
         x="130.53233"
         height="33.602299"
         width="33.735668"
         id="rect968"
         style="display:none;stroke-width:0.264583;paint-order:markers fill stroke" />
      <path
         d="M 55.042969,89.546875 H 164.44727 V 198.95117 H 55.042969 Z m 75.489361,91.243135 v 33.6023 H 164.268 v -33.6023 z"
         class="powerclip"
         style="stroke-width:0.264583;paint-order:markers fill stroke"
         id="lpe_path-effect970" />
    </clipPath>
  </defs>
  <sodipodi:namedview
     id="base"
     pagecolor="#ffffff"
     bordercolor="#666666"
     borderopacity="1.0"
     inkscape:pageopacity="0.0"
     inkscape:pageshadow="2"
     inkscape:zoom="0.98994949"
     inkscape:cx="275.16609"
     inkscape:cy="304.96993"
     inkscape:document-units="mm"
     inkscape:current-layer="layer1"
     inkscape:document-rotation="0"
     showgrid="false"
     inkscape:window-width="1920"
     inkscape:window-height="1012"
     inkscape:window-x="0"
     inkscape:window-y="0"
     inkscape:window-maximized="1"
     fit-margin-top="0"
     fit-margin-left="0"
     fit-margin-right="0"
     fit-margin-bottom="0" />
  <metadata
     id="metadata2649">
    <rdf:RDF>
      <cc:Work
         rdf:about="">
        <dc:format>image/svg+xml</dc:format>
        <dc:type
           rdf:resource="http://purl.org/dc/dcmitype/StillImage" />
        <dc:title />
      </cc:Work>
    </rdf:RDF>
  </metadata>
  <g
     inkscape:label="Layer 1"
     inkscape:groupmode="layer"
     id="layer1"
     transform="translate(-60.042517,-94.546675)">
    <g
       transform="matrix(0.13431502,0,0,0.13431502,65.016479,116.3986)"
       id="g2603">
      <path
         d=""
         fill="none"
         id="path2591" />
      <g
         id="g2601">
        <path
           d="M 476.94,332.587 H 352.538 c -4.151,0 -7.515,3.364 -7.515,7.515 0,4.15 3.364,7.515 7.515,7.515 H 476.94 c 5.78,0 10.482,4.702 10.482,10.482 0,5.78 -4.703,10.482 -10.482,10.482 H 167.517 c -25.5,0 -46.246,-20.746 -46.246,-46.246 0,-21.449 14.561,-39.939 35.408,-44.964 1.943,-0.468 3.618,-1.691 4.658,-3.397 1.039,-1.707 1.356,-3.757 0.88,-5.698 L 130.385,138.45 c -0.988,-4.031 -5.057,-6.497 -9.088,-5.509 -4.031,0.988 -6.497,5.057 -5.509,9.088 l 30.145,122.943 c -23.704,8.873 -39.691,31.494 -39.691,57.362 0,33.787 27.488,61.275 61.275,61.275 h 10.586 c -15.206,12.342 -24.946,31.168 -24.946,52.233 0,7.091 1.1,14.078 3.269,20.767 1.28,3.947 5.52,6.108 9.466,4.83 3.948,-1.28 6.111,-5.518 4.83,-9.466 -1.682,-5.189 -2.536,-10.616 -2.536,-16.131 0,-28.801 23.432,-52.233 52.233,-52.233 28.801,0 52.233,23.431 52.233,52.233 0,28.801 -23.432,52.233 -52.233,52.233 -13.237,0 -25.863,-4.96 -35.551,-13.966 -3.04,-2.826 -7.794,-2.652 -10.62,0.387 -2.826,3.04 -2.652,7.795 0.388,10.62 12.478,11.599 28.738,17.987 45.784,17.987 37.089,0 67.263,-30.174 67.263,-67.263 0,-21.065 -9.741,-39.891 -24.946,-52.233 h 103.484 c -15.206,12.342 -24.946,31.168 -24.946,52.233 0,37.089 30.174,67.263 67.262,67.263 37.088,0 67.262,-30.174 67.262,-67.263 0,-21.065 -9.741,-39.891 -24.946,-52.233 h 26.089 c 14.068,0 25.512,-11.444 25.512,-25.511 -0.002,-14.065 -11.446,-25.509 -25.514,-25.509 z m -16.172,103.255 c 0,28.801 -23.431,52.233 -52.233,52.233 -28.801,0 -52.233,-23.432 -52.233,-52.233 0,-28.801 23.431,-52.233 52.233,-52.233 28.802,0.001 52.233,23.432 52.233,52.233 z"
           id="path2593" />
        <path
           d="m 510.387,72.934 c -1.425,-1.807 -3.6,-2.862 -5.901,-2.862 H 150.679 L 144.286,44 C 139.218,23.33 120.815,8.894 99.533,8.894 H 25.511 C 11.444,8.895 0,20.339 0,34.406 0,48.473 11.444,59.917 25.511,59.917 h 70.144 l 13.45,54.857 c 0.988,4.03 5.054,6.496 9.088,5.509 4.031,-0.988 6.497,-5.057 5.509,-9.088 L 109.328,52.571 c -1.11,-4.524 -5.138,-7.684 -9.796,-7.684 H 25.511 c -5.78,0 -10.482,-4.702 -10.482,-10.482 0,-5.78 4.702,-10.482 10.482,-10.482 h 74.022 c 14.34,0 26.741,9.727 30.156,23.656 l 55.61,226.802 c 1.348,5.499 0.117,11.208 -3.377,15.662 -3.494,4.454 -8.744,7.009 -14.406,7.009 -13.94,0 -25.282,11.341 -25.282,25.281 0,13.941 11.342,25.282 25.282,25.282 h 154.963 c 4.151,0 7.515,-3.365 7.515,-7.515 0,-4.15 -3.364,-7.515 -7.515,-7.515 H 167.517 c -5.653,0 -10.252,-4.599 -10.252,-10.253 0,-5.653 4.599,-10.252 10.252,-10.252 10.309,0 19.869,-4.652 26.231,-12.762 4.403,-5.612 6.828,-12.319 7.094,-19.236 l 257.048,-0.73 c 3.467,-0.01 6.477,-2.39 7.286,-5.761 L 511.793,79.339 c 0.537,-2.236 0.018,-4.597 -1.406,-6.405 z m -42.905,126.64 h -45.677 l 9.726,-49.721 h 47.883 z m -48.324,-64.75 h -47.139 l 4.318,-49.722 h 52.547 z m -58.409,129.777 4.342,-49.997 h 38.461 l -9.762,49.903 z m -104.534,0.296 -9.838,-50.294 h 38.461 l 4.359,50.2 z m -57.727,0.164 -12.372,-50.458 h 44.947 l 9.847,50.338 z m 94.507,-130.237 -4.318,-49.722 h 72.573 l -4.318,49.722 z m 62.633,15.029 -4.318,49.721 H 298.618 L 294.3,149.853 Z m -72.095,49.721 h -40.096 l -9.726,-49.721 h 45.504 z m -5.623,-64.75 h -47.139 l -9.726,-49.722 h 52.547 z m -49.787,64.75 H 182.431 L 170.24,149.853 h 48.157 z m 71.8,15.029 h 50.082 l -4.346,50.04 -41.38,0.118 z m 66.473,-15.029 4.318,-49.721 h 45.504 l -9.726,49.721 z M 205.731,85.102 l 9.726,49.722 H 166.555 L 154.364,85.102 Z m 246.208,179.24 -42.827,0.122 9.753,-49.86 h 45.01 z m 31.083,-129.518 h -48.55 l 9.726,-49.722 h 50.756 z"
           id="path2595" />
        <path
           d="m 220.419,472.29 c 20.097,0 36.448,-16.35 36.448,-36.448 0,-20.097 -16.35,-36.447 -36.448,-36.447 -20.097,0 -36.448,16.35 -36.448,36.447 0.001,20.098 16.351,36.448 36.448,36.448 z m 0,-57.865 c 11.81,0 21.418,9.608 21.418,21.418 0,11.81 -9.608,21.418 -21.418,21.418 -11.81,0 -21.418,-9.608 -21.418,-21.418 0,-11.81 9.608,-21.418 21.418,-21.418 z"
           id="path2597" />
        <path
           d="m 408.535,472.29 c 20.097,0 36.447,-16.35 36.447,-36.448 0,-20.097 -16.35,-36.447 -36.447,-36.447 -20.097,0 -36.447,16.35 -36.447,36.447 0,20.098 16.35,36.448 36.447,36.448 z m 0,-57.865 c 11.81,0 21.418,9.608 21.418,21.418 0,11.81 -9.608,21.418 -21.418,21.418 -11.81,0 -21.418,-9.608 -21.418,-21.418 0,-11.81 9.608,-21.418 21.418,-21.418 z"
           id="path2599" />
      </g>
    </g>
    <path
       style="color:#000000;font-style:normal;font-variant:normal;font-weight:normal;font-stretch:normal;font-size:medium;line-height:normal;font-family:sans-serif;font-variant-ligatures:normal;font-variant-position:normal;font-variant-caps:normal;font-variant-numeric:normal;font-variant-alternates:normal;font-variant-east-asian:normal;font-feature-settings:normal;font-variation-settings:normal;text-indent:0;text-align:start;text-decoration:none;text-decoration-line:none;text-decoration-style:solid;text-decoration-color:#000000;letter-spacing:normal;word-spacing:normal;text-transform:none;writing-mode:lr-tb;direction:ltr;text-orientation:mixed;dominant-baseline:auto;baseline-shift:baseline;text-anchor:start;white-space:normal;shape-padding:0;shape-margin:0;inline-size:0;clip-rule:nonzero;display:inline;overflow:visible;visibility:visible;isolation:auto;mix-blend-mode:normal;color-interpolation:sRGB;color-interpolation-filters:linearRGB;solid-color:#000000;solid-opacity:1;vector-effect:none;fill-opacity:1;fill-rule:nonzero;stroke:none;stroke-width:1.80392;stroke-linecap:round;stroke-linejoin:round;stroke-miterlimit:4.2;stroke-dasharray:none;stroke-dashoffset:0;stroke-opacity:1;color-rendering:auto;image-rendering:auto;shape-rendering:auto;text-rendering:auto;enable-background:accumulate;stop-color:#000000;stop-opacity:1;opacity:1"
       d="M 143.17969 105.57617 C 136.24193 105.57617 130.45703 110.34349 130.45703 116.4082 C 130.45703 122.47291 136.24193 127.24024 143.17969 127.24023 C 150.03918 127.24023 155.75045 122.57435 155.87891 116.60742 A 0.90196002 0.90196002 0 0 0 155.90234 116.4082 A 0.90196002 0.90196002 0 0 0 155.87891 116.21875 C 155.75657 110.24709 150.04297 105.57617 143.17969 105.57617 z M 143.17969 107.37891 C 149.29841 107.37891 154.09766 111.50394 154.09766 116.4082 C 154.09766 121.31247 149.29841 125.4375 143.17969 125.4375 C 137.06097 125.4375 132.25977 121.31247 132.25977 116.4082 C 132.25977 111.50394 137.06097 107.3789 143.17969 107.37891 z "
       id="path2355" />
    <text
       id="text2644"
       y="122.68044"
       x="132.96841"
       style="font-style:normal;font-variant:normal;font-weight:normal;font-stretch:normal;font-size:16.9333px;line-height:125%;font-family:Arial;-inkscape-font-specification:Arial;letter-spacing:0px;word-spacing:0px;fill-opacity:1;stroke:none;stroke-width:0.264583px;stroke-linecap:butt;stroke-linejoin:miter;stroke-opacity:1;"
       xml:space="preserve"><tspan
         style="font-style:normal;font-variant:normal;font-weight:normal;font-stretch:normal;font-size:16.9333px;font-family:Arial;-inkscape-font-specification:Arial;stroke-width:0.264583px;"
         y="122.68044"
         x="132.96841"
         id="tspan2642"
         sodipodi:role="line">15</tspan></text>
    <path
       inkscape:original-d="M 60.722656 94.546875 A 0.68025304 0.68025304 0 0 0 60.042969 95.226562 L 60.042969 193.27148 A 0.68025304 0.68025304 0 0 0 60.722656 193.95117 L 158.76758 193.95117 A 0.68025304 0.68025304 0 0 0 159.44727 193.27148 L 159.44727 95.226562 A 0.68025304 0.68025304 0 0 0 158.76758 94.546875 L 60.722656 94.546875 z M 61.402344 95.90625 L 158.08789 95.90625 L 158.08789 192.5918 L 61.402344 192.5918 L 61.402344 95.90625 z "
       inkscape:path-effect="#path-effect970"
       clip-path="url(#clipPath966)"
       id="path962"
       d="m 60.722656,94.546875 a 0.68025304,0.68025304 0 0 0 -0.679687,0.679687 v 98.044918 a 0.68025304,0.68025304 0 0 0 0.679687,0.67969 h 98.044924 a 0.68025304,0.68025304 0 0 0 0.67969,-0.67969 V 95.226562 a 0.68025304,0.68025304 0 0 0 -0.67969,-0.679687 z m 0.679688,1.359375 H 158.08789 V 192.5918 H 61.402344 Z"
       style="color:#000000;font-style:normal;font-variant:normal;font-weight:normal;font-stretch:normal;font-size:medium;line-height:normal;font-family:sans-serif;font-variant-ligatures:normal;font-variant-position:normal;font-variant-caps:normal;font-variant-numeric:normal;font-variant-alternates:normal;font-variant-east-asian:normal;font-feature-settings:normal;font-variation-settings:normal;text-indent:0;text-align:start;text-decoration:none;text-decoration-line:none;text-decoration-style:solid;text-decoration-color:#000000;letter-spacing:normal;word-spacing:normal;text-transform:none;writing-mode:lr-tb;direction:ltr;text-orientation:mixed;dominant-baseline:auto;baseline-shift:baseline;text-anchor:start;white-space:normal;shape-padding:0;shape-margin:0;inline-size:0;clip-rule:nonzero;display:inline;overflow:visible;visibility:visible;isolation:auto;mix-blend-mode:normal;color-interpolation:sRGB;color-interpolation-filters:linearRGB;solid-color:#000000;solid-opacity:1;vector-effect:none;fill-opacity:1;fill-rule:nonzero;stroke:none;stroke-width:1.36037;stroke-linecap:round;stroke-linejoin:round;stroke-miterlimit:4.2;stroke-dasharray:none;stroke-dashoffset:0;stroke-opacity:1;color-rendering:auto;image-rendering:auto;shape-rendering:auto;text-rendering:auto;enable-background:accumulate;stop-color:#000000;stop-opacity:1;opacity:1" />
    <g
       id="g3409"
       transform="matrix(0.11142984,0,0,0.11142984,130.14384,180.21039)">
      <path
         id="path3354"
         d="m 293.808,239.59 -82.841,-82.878 60.437,-34.929 c 3.54,-2.047 5.601,-5.936 5.306,-10.015 -0.295,-4.08 -2.894,-7.632 -6.692,-9.146 L 14.699,0.762 C 10.734,-0.821 6.212,0.109 3.193,3.127 0.175,6.144 -0.755,10.668 0.825,14.631 l 101.813,255.434 c 1.515,3.801 5.066,6.401 9.147,6.696 4.081,0.301 7.972,-1.766 10.017,-5.309 l 34.904,-60.449 82.835,82.868 c 2.002,2.004 4.719,3.129 7.551,3.129 2.833,0 5.55,-1.126 7.553,-3.129 l 39.162,-39.186 c 4.169,-4.169 4.169,-10.927 10e-4,-15.095 z" />
      <g
         id="g3356" />
      <g
         id="g3358" />
      <g
         id="g3360" />
      <g
         id="g3362" />
      <g
         id="g3364" />
      <g
         id="g3366" />
      <g
         id="g3368" />
      <g
         id="g3370" />
      <g
         id="g3372" />
      <g
         id="g3374" />
      <g
         id="g3376" />
      <g
         id="g3378" />
      <g
         id="g3380" />
      <g
         id="g3382" />
      <g
         id="g3384" />
    </g>
  </g>
</svg>
